{
  "project_info": {
    "project_number": "638374865918",
    "firebase_url": "https://appclinica-549c4.firebaseio.com",
    "project_id": "appclinica-549c4",
    "storage_bucket": "appclinica-549c4.appspot.com"
  },
  "client": [
    {
      "client_info": {
        "mobilesdk_app_id": "1:638374865918:android:aaf7a8a7d7776c61",
        "android_client_info": {
          "package_name": "br.com.appclinica.appclinica"
        }
      },
      "oauth_client": [
        {
          "client_id": "638374865918-m1cfuurqrodbs6qblq2mfotvkgl4g3sn.apps.googleusercontent.com",
          "client_type": 1,
          "android_info": {
            "package_name": "br.com.appclinica.appclinica",
            "certificate_hash": "78b68dab3a1e4be1245a53aba2069465527a5860"
          }
        },
        {
          "client_id": "638374865918-523r81gnlatfghbnde5idd33d8j77q8f.apps.googleusercontent.com",
          "client_type": 3
        }
      ],
      "api_key": [
        {
          "current_key": "AIzaSyDw2aZG_D2C5AJsQxs0wIgIpAtucaKO8D8"
        }
      ],
      "services": {
        "analytics_service": {
          "status": 1
        },
        "appinvite_service": {
          "status": 2,
          "other_platform_oauth_client": [
            {
              "client_id": "638374865918-523r81gnlatfghbnde5idd33d8j77q8f.apps.googleusercontent.com",
              "client_type": 3
            }
          ]
        },
        "ads_service": {
          "status": 2
        }
      }
    }
  ],
  "configuration_version": "1"
}